Assignment 1
…
Sex (SEX)

Race (RAC1P)

Housing tenure (TEN)

Total income, past 12 months (PINCP)

Household size (NP)

The first 10 rows of my data are shown below. Youll notice the variable for race (RAC1P) is included twice in the code below. As youll see shortly, I included this twice so that I would be able to recode it into a new variable.

person_data

## # A tibble: 13,822 x 7
##     AGEP SEX_label RAC1P_label RAC1P TEN_label       PINCP    NP
##    <dbl> <chr>     <chr>       <chr> <chr>           <dbl> <dbl>
##  1    90 Female    White alone 1     N/A (GQ/vacant) 10500     1
##  2    89 Female    White alone 1     N/A (GQ/vacant) 30600     1
##  3    90 Female    White alone 1     N/A (GQ/vacant) 22600     1
##  4    85 Female    White alone 1     N/A (GQ/vacant)     0     1
##  5    86 Female    White alone 1     N/A (GQ/vacant)  6300     1
##  6    86 Male      White alone 1     N/A (GQ/vacant) 36600     1
##  7    85 Female    White alone 1     N/A (GQ/vacant) 21100     1
##  8    74 Female    White alone 1     N/A (GQ/vacant) 22000     1
##  9    90 Female    White alone 1     N/A (GQ/vacant)     0     1
## 10    89 Male      White alone 1     N/A (GQ/vacant)     0     1
## # ... with 13,812 more rows
…
